logs.txt
N = 5 (C Implementation)
C01 | Req: [ 10001 ] -> Gnt: [ 00001 ]
C02 | Req: [ 10111 ] -> Gnt: [ 00010 ]
C03 | Req: [ 10010 ] -> Gnt: [ 10000 ]
C04 | Req: [ 11011 ] -> Gnt: [ 00001 ]
C05 | Req: [ 11010 ] -> Gnt: [ 00010 ]
C06 | Req: [ 01100 ] -> Gnt: [ 00100 ]
C07 | Req: [ 01110 ] -> Gnt: [ 01000 ]
C08 | Req: [ 01000 ] -> Gnt: [ 01000 ]
C09 | Req: [ 10011 ] -> Gnt: [ 10000 ]
C10 | Req: [ 00010 ] -> Gnt: [ 00010 ]
[Special Check] Forcing Wrap-Around...
State=Last, Req=[0] -> Gnt: [ 00001 ]

---------------------------------------------------------------------------------------------------------------------------------

N = 32 ( C IMPLEMENTATION )
C01 | Req: [ 01000101100011011010100011110101 ] -> Gnt: [ 00000000000000000000000000000001 ]
C02 | Req: [ 11000110101111001010101001111011 ] -> Gnt: [ 00000000000000000000000000000010 ]
C03 | Req: [ 11100011111010011111110101110001 ] -> Gnt: [ 00000000000000000000000000010000 ]
C04 | Req: [ 10101011110000011100111111011110 ] -> Gnt: [ 00000000000000000000000001000000 ]
C05 | Req: [ 11001001001100000101111101101011 ] -> Gnt: [ 00000000000000000000000100000000 ]
C06 | Req: [ 10000100100011101101001100001000 ] -> Gnt: [ 00000000000000000000001000000000 ]
C07 | Req: [ 00111101000101110000000011111100 ] -> Gnt: [ 00000000000000010000000000000000 ]
C08 | Req: [ 01110110100010011011100110111101 ] -> Gnt: [ 00000000000010000000000000000000 ]
C09 | Req: [ 01111110101011010001000100011010 ] -> Gnt: [ 00000000001000000000000000000000 ]
C10 | Req: [ 00010100001001001010001101010011 ] -> Gnt: [ 00000100000000000000000000000000 ]
[Special Check] Forcing Wrap-Around...
State=Last, Req=[0] -> Gnt: [ 00000000000000000000000000000001 ]

---------------------------------------------------------------------------------------------------------------------------------

=== START SIMULATION ===
Reset Released. Checking Default State...
Time: 10000 | Req: 00000 | Gnt: 00000 | Mask: 00000 | LastGnt_Ptr: 10000
Time: 20000 | Req: 00000 | Gnt: 00000 | Mask: 00000 | LastGnt_Ptr: 10000

--- Test: Priority Rotation (0 was last, now Req 1 & 2) ---
Time: 30000 | Req: 00110 | Gnt: 00001 | Mask: 11110 | LastGnt_Ptr: 00001
Time: 40000 | Req: 00110 | Gnt: 00010 | Mask: 11100 | LastGnt_Ptr: 00010
--- Test: Holding Req (Expect Grant to move to 2) ---

--- Test: Wrap Around (Last was 2, Req 0 & 1) ---
Time: 50000 | Req: 00011 | Gnt: 00100 | Mask: 11000 | LastGnt_Ptr: 00100
Time: 60000 | Req: 00011 | Gnt: 00001 | Mask: 11110 | LastGnt_Ptr: 00001

--- Test: Starvation Freedom (All Req High) ---
Time: 70000 | Req: 01111 | Gnt: 00010 | Mask: 11100 | LastGnt_Ptr: 00010
Time: 80000 | Req: 01111 | Gnt: 00100 | Mask: 11000 | LastGnt_Ptr: 00100
Time: 90000 | Req: 01111 | Gnt: 01000 | Mask: 10000 | LastGnt_Ptr: 01000
Time: 100000 | Req: 01111 | Gnt: 00001 | Mask: 11110 | LastGnt_Ptr: 00001
Time: 110000 | Req: 01111 | Gnt: 00010 | Mask: 11100 | LastGnt_Ptr: 00010
Time: 120000 | Req: 01111 | Gnt: 00100 | Mask: 11000 | LastGnt_Ptr: 00100

--- Test: Idle (No Req) ---
Time: 130000 | Req: 00000 | Gnt: 00000 | Mask: 11000 | LastGnt_Ptr: 00100
Time: 140000 | Req: 00000 | Gnt: 00000 | Mask: 11000 | LastGnt_Ptr: 00100

=== TEST COMPLETE ===
tb_round_robin_arbiter.v:97: $finish called at 150000 (1ps)
Time: 150000 | Req: 01000 | Gnt: 01000 | Mask: 10000 | LastGnt_Ptr: 01000
---------------------------------------------------------------------------------------------------------------------------------

N = 32 (verilog Implementation)
=== START SIMULATION ===
Reset Released. Checking Default State...
Time: 10000 | Req: 00000000000000000000000000000000 | Gnt: 00000000000000000000000000000000 | Mask: 00000000000000000000000000000000 | LastGnt_Ptr: 10000000000000000000000000000000
Time: 20000 | Req: 00000000000000000000000000000000 | Gnt: 00000000000000000000000000000000 | Mask: 00000000000000000000000000000000 | LastGnt_Ptr: 10000000000000000000000000000000

--- Test: Priority Rotation (0 was last, now Req 1 & 2) ---
Time: 30000 | Req: 00000000000000000000000000000110 | Gnt: 00000000000000000000000000000001 | Mask: 11111111111111111111111111111110 | LastGnt_Ptr: 00000000000000000000000000000001
Time: 40000 | Req: 00000000000000000000000000000110 | Gnt: 00000000000000000000000000000010 | Mask: 11111111111111111111111111111100 | LastGnt_Ptr: 00000000000000000000000000000010
--- Test: Holding Req (Expect Grant to move to 2) ---

--- Test: Wrap Around (Last was 2, Req 0 & 1) ---
Time: 50000 | Req: 00000000000000000000000000000011 | Gnt: 00000000000000000000000000000100 | Mask: 11111111111111111111111111111000 | LastGnt_Ptr: 00000000000000000000000000000100
Time: 60000 | Req: 00000000000000000000000000000011 | Gnt: 00000000000000000000000000000001 | Mask: 11111111111111111111111111111110 | LastGnt_Ptr: 00000000000000000000000000000001

--- Test: Starvation Freedom (All Req High) ---
Time: 70000 | Req: 00000000000000000000000000001111 | Gnt: 00000000000000000000000000000010 | Mask: 11111111111111111111111111111100 | LastGnt_Ptr: 00000000000000000000000000000010
Time: 80000 | Req: 00000000000000000000000000001111 | Gnt: 00000000000000000000000000000100 | Mask: 11111111111111111111111111111000 | LastGnt_Ptr: 00000000000000000000000000000100
Time: 90000 | Req: 00000000000000000000000000001111 | Gnt: 00000000000000000000000000001000 | Mask: 11111111111111111111111111110000 | LastGnt_Ptr: 00000000000000000000000000001000
Time: 100000 | Req: 00000000000000000000000000001111 | Gnt: 00000000000000000000000000000001 | Mask: 11111111111111111111111111111110 | LastGnt_Ptr: 00000000000000000000000000000001
Time: 110000 | Req: 00000000000000000000000000001111 | Gnt: 00000000000000000000000000000010 | Mask: 11111111111111111111111111111100 | LastGnt_Ptr: 00000000000000000000000000000010
Time: 120000 | Req: 00000000000000000000000000001111 | Gnt: 00000000000000000000000000000100 | Mask: 11111111111111111111111111111000 | LastGnt_Ptr: 00000000000000000000000000000100

--- Test: Idle (No Req) ---
Time: 130000 | Req: 00000000000000000000000000000000 | Gnt: 00000000000000000000000000000000 | Mask: 11111111111111111111111111111000 | LastGnt_Ptr: 00000000000000000000000000000100
Time: 140000 | Req: 00000000000000000000000000000000 | Gnt: 00000000000000000000000000000000 | Mask: 11111111111111111111111111111000 | LastGnt_Ptr: 00000000000000000000000000000100

=== TEST COMPLETE ===
tb_round_robin_arbiter.v:97: $finish called at 150000 (1ps)
Time: 150000 | Req: 00000000000000000000000000001000 | Gnt: 00000000000000000000000000001000 | Mask: 11111111111111111111111111110000 | LastGnt_Ptr: 00000000000000000000000000001000
